{
    "ot": {
        "gen": "Genesis",
        "exod": "Exodus",
        "lev": "Leviticus",
        "num": "Numbers",
        "deut": "Deuteronomy",
        "josh": "Joshua",
        "judg": "Judges",
        "ruth": "Ruth",
        "1sam": "1 Samuel",
        "2sam": "2 Samuel",
        "1kgs": "1 Kings",
        "2kgs": "2 Kings",
        "1chr": "1 Chronicles",
        "2chr": "2 Chronicles",
        "ezra": "Ezra",
        "neh": "Nehemiah",
        "esth": "Esther",
        "job": "Job",
        "ps": "Psalm",
        "prov": "Proverbs",
        "eccl": "Ecclesiastes",
        "song": "Song of Songs",
        "isa": "Isaiah",
        "jer": "Jeremiah",
        "lam": "Lamentations",
        "ezek": "Ezekiel",
        "dan": "Daniel",
        "hos": "Hosea",
        "joel": "Joel",
        "amos": "Amos",
        "obad": "Obadiah",
        "jonah": "Jonah",
        "mic": "Micah",
        "nah": "Nahum",
        "hab": "Habakkuk",
        "zeph": "Zephaniah",
        "hag": "Haggai",
        "zech": "Zechariah",
        "mal": "Malachi"
    },
    "nt": {
        "matt": "Matthew",
        "mark": "Mark",
        "luke": "Luke",
        "john": "John",
        "acts": "Acts",
        "rom": "Romans",
        "1cor": "1 Corinthians",
        "2cor": "2 Corinthians",
        "gal": "Galatians",
        "eph": "Ephesians",
        "phil": "Philippians",
        "col": "Colossians",
        "1thess": "1 Thessalonians",
        "2thess": "2 Thessalonians",
        "1tim": "1 Timothy",
        "2tim": "2 Timothy",
        "titus": "Titus",
        "phlm": "Philemon",
        "heb": "Hebrews",
        "jas": "James",
        "1pet": "1 Peter",
        "2pet": "2 Peter",
        "1john": "1 John",
        "2john": "2 John",
        "3john": "3 John",
        "jude": "Jude",
        "rev": "Revelation"
    },
    "deu": {
        "tob": "Tobit",
        "jdt": "Judith",
        "gkest": "Greek Esther",
        "addesth": "Additions to Esther",
        "wis": "Wisdom",
        "sir": "Sirach",
        "bar": "Baruch",
        "epjer": "Letter of Jeremiah",
        "praz": "Prayer of Azariah",
        "sgthr": "Song of the Three Young Men",
        "sus": "Susanna",
        "bel": "Bel and the Dragon",
        "1macc": "1 Maccabees",
        "2macc": "2 Maccabees",
        "1esd": "1 Esdras",
        "prman": "Prayer of Manasseh",
        "ps151": "Psalm 151",
        "3ma": "3 Maccabees",
        "2esd": "2 Esdras",
        "4ma": "4 Maccabees"
    }
}